adduser3.116ubuntu1
apt1.6.13
apt-transport-https1.6.13
apt-utils1.6.13
base-files10.1ubuntu2.10
base-passwd3.5.44
bash4.4.18-2ubuntu1.2
binutils2.30-21ubuntu1~18.04.5
binutils-common2.30-21ubuntu1~18.04.5
binutils-x86-64-linux-gnu2.30-21ubuntu1~18.04.5
bsdutils1:2.31.1-0.4ubuntu3.7
bzip21.0.6-8.1ubuntu0.2
ca-certificates20210119~18.04.1
ca-certificates-mono5.20.1.34-0xamarin4+ubuntu1804b1
cli-common0.9+xamarin8+ubuntu1804b1
coreutils8.28-1ubuntu1
curl7.58.0-2ubuntu3.13
dash0.5.8-2.10
debconf1.5.66ubuntu1
debianutils4.8.4
diffutils1:3.6-1
dirmngr2.2.4-1ubuntu1.4
dpkg1.19.0.5ubuntu2.3
dpkg-dev1.19.0.5ubuntu2.3
e2fsprogs1.44.1-1ubuntu1.3
fdisk2.31.1-0.4ubuntu3.7
findutils4.6.0+git+20170828-2
fontconfig-config2.12.6-0ubuntu2
fonts-dejavu-core2.37-1
gcc-8-base8.4.0-1ubuntu1~18.04
gnupg2.2.4-1ubuntu1.4
gnupg-l10n2.2.4-1ubuntu1.4
gnupg-utils2.2.4-1ubuntu1.4
gpg2.2.4-1ubuntu1.4
gpg-agent2.2.4-1ubuntu1.4
gpgconf2.2.4-1ubuntu1.4
gpgsm2.2.4-1ubuntu1.4
gpgv2.2.4-1ubuntu1.4
gpg-wks-client2.2.4-1ubuntu1.4
gpg-wks-server2.2.4-1ubuntu1.4
grep3.1-2build1
gzip1.6-5ubuntu1
hostname3.20
init-system-helpers1.51
jq1.5+dfsg-2
krb5-locales1.16-2ubuntu0.2
libacl12.2.52-3build1
libapt-inst2.01.6.13
libapt-pkg5.01.6.13
libasn1-8-heimdal7.5.0+dfsg-1
libassuan02.5.1-2
libattr11:2.4.47-2build1
libaudit11:2.8.2-1ubuntu1.1
libaudit-common1:2.8.2-1ubuntu1.1
libbinutils2.30-21ubuntu1~18.04.5
libblkid12.31.1-0.4ubuntu3.7
libbsd00.8.7-1ubuntu0.1
libbz2-1.01.0.6-8.1ubuntu0.2
libc62.27-3ubuntu1.4
libcairo21.15.10-2ubuntu0.1
libcap-ng00.7.7-3.1
libc-bin2.27-3ubuntu1.4
libcom-err21.44.1-1ubuntu1.3
libcurl3-gnutls7.58.0-2ubuntu3.13
libcurl47.58.0-2ubuntu3.13
libcurl4-openssl-dev7.58.0-2ubuntu3.13
libdb5.35.3.28-13.1ubuntu1.1
libdebconfclient00.213ubuntu1
libdpkg-perl1.19.0.5ubuntu2.3
libexif120.6.21-4ubuntu0.6
libexpat12.2.5-3ubuntu0.2
libext2fs21.44.1-1ubuntu1.3
libfdisk12.31.1-0.4ubuntu3.7
libffi63.2.1-8
libfontconfig12.12.6-0ubuntu2
libfreetype62.8.1-2ubuntu2.1
libgcc11:8.4.0-1ubuntu1~18.04
libgcrypt201.8.1-4ubuntu1.2
libgdbm51.14.1-6
libgdbm-compat41.14.1-6
libgdiplus5.6.1-0xamarin1+ubuntu1804b1
libgif75.1.4-2ubuntu0.1
libglib2.0-02.56.4-0ubuntu0.18.04.8
libgmp102:6.1.2+dfsg-2
libgnutls303.5.18-1ubuntu1.4
libgpg-error01.27-6
libgssapi3-heimdal7.5.0+dfsg-1
libgssapi-krb5-21.16-2ubuntu0.2
libhcrypto4-heimdal7.5.0+dfsg-1
libheimbase1-heimdal7.5.0+dfsg-1
libheimntlm0-heimdal7.5.0+dfsg-1
libhogweed43.4-1ubuntu0.1
libhx509-5-heimdal7.5.0+dfsg-1
libidn2-02.0.4-1.1ubuntu0.2
libjbig02.1-3.1build1
libjpeg88c-2ubuntu8
libjpeg-turbo81.5.2-0ubuntu5.18.04.4
libjq11.5+dfsg-2
libk5crypto31.16-2ubuntu0.2
libkeyutils11.5.9-9.2ubuntu2
libkrb5-26-heimdal7.5.0+dfsg-1
libkrb5-31.16-2ubuntu0.2
libkrb5support01.16-2ubuntu0.2
libksba81.3.5-2
libldap-2.4-22.4.45+dfsg-1ubuntu1.10
libldap-common2.4.45+dfsg-1ubuntu1.10
liblz4-10.0~r131-2ubuntu3
liblzma55.2.2-1.3
libmediainfo0v521.03-1
libmms00.6.4-2
libmono-2.0-dev5.20.1.34-0xamarin4+ubuntu1804b1
libmono-accessibility4.0-cil5.20.1.34-0xamarin4+ubuntu1804b1
libmono-cairo4.0-cil5.20.1.34-0xamarin4+ubuntu1804b1
libmono-cecil-private-cil5.20.1.34-0xamarin4+ubuntu1804b1
libmono-cecil-vb0.9-cil4.7-0xamarin1+ubuntu1804b1
libmono-cil-dev5.20.1.34-0xamarin4+ubuntu1804b1
libmono-codecontracts4.0-cil5.20.1.34-0xamarin4+ubuntu1804b1
libmono-compilerservices-symbolwriter4.0-cil5.20.1.34-0xamarin4+ubuntu1804b1
libmono-corlib4.5-cil5.20.1.34-0xamarin4+ubuntu1804b1
libmono-cscompmgd0.0-cil5.20.1.34-0xamarin4+ubuntu1804b1
libmono-csharp4.0c-cil5.20.1.34-0xamarin4+ubuntu1804b1
libmono-custommarshalers4.0-cil5.20.1.34-0xamarin4+ubuntu1804b1
libmono-data-tds4.0-cil5.20.1.34-0xamarin4+ubuntu1804b1
libmono-db2-1.0-cil5.20.1.34-0xamarin4+ubuntu1804b1
libmono-debugger-soft4.0a-cil5.20.1.34-0xamarin4+ubuntu1804b1
libmono-http4.0-cil5.20.1.34-0xamarin4+ubuntu1804b1
libmono-i18n4.0-all5.20.1.34-0xamarin4+ubuntu1804b1
libmono-i18n4.0-cil5.20.1.34-0xamarin4+ubuntu1804b1
libmono-i18n-cjk4.0-cil5.20.1.34-0xamarin4+ubuntu1804b1
libmono-i18n-mideast4.0-cil5.20.1.34-0xamarin4+ubuntu1804b1
libmono-i18n-other4.0-cil5.20.1.34-0xamarin4+ubuntu1804b1
libmono-i18n-rare4.0-cil5.20.1.34-0xamarin4+ubuntu1804b1
libmono-i18n-west4.0-cil5.20.1.34-0xamarin4+ubuntu1804b1
libmono-ldap4.0-cil5.20.1.34-0xamarin4+ubuntu1804b1
libmono-management4.0-cil5.20.1.34-0xamarin4+ubuntu1804b1
libmono-messaging4.0-cil5.20.1.34-0xamarin4+ubuntu1804b1
libmono-messaging-rabbitmq4.0-cil5.20.1.34-0xamarin4+ubuntu1804b1
libmono-microsoft-build4.0-cil5.20.1.34-0xamarin4+ubuntu1804b1
libmono-microsoft-build-engine4.0-cil5.20.1.34-0xamarin4+ubuntu1804b1
libmono-microsoft-build-framework4.0-cil5.20.1.34-0xamarin4+ubuntu1804b1
libmono-microsoft-build-tasks-v4.0-4.0-cil5.20.1.34-0xamarin4+ubuntu1804b1
libmono-microsoft-build-utilities-v4.0-4.0-cil5.20.1.34-0xamarin4+ubuntu1804b1
libmono-microsoft-csharp4.0-cil5.20.1.34-0xamarin4+ubuntu1804b1
libmono-microsoft-visualbasic10.0-cil4.7-0xamarin1+ubuntu1804b1
libmono-microsoft-visualc10.0-cil5.20.1.34-0xamarin4+ubuntu1804b1
libmono-microsoft-web-infrastructure1.0-cil5.20.1.34-0xamarin4+ubuntu1804b1
libmono-oracle4.0-cil5.20.1.34-0xamarin4+ubuntu1804b1
libmono-parallel4.0-cil5.20.1.34-0xamarin4+ubuntu1804b1
libmono-peapi4.0a-cil5.20.1.34-0xamarin4+ubuntu1804b1
libmono-posix4.0-cil5.20.1.34-0xamarin4+ubuntu1804b1
libmono-rabbitmq4.0-cil5.20.1.34-0xamarin4+ubuntu1804b1
libmono-relaxng4.0-cil5.20.1.34-0xamarin4+ubuntu1804b1
libmono-security4.0-cil5.20.1.34-0xamarin4+ubuntu1804b1
libmonosgen-2.0-15.20.1.34-0xamarin4+ubuntu1804b1
libmonosgen-2.0-dev5.20.1.34-0xamarin4+ubuntu1804b1
libmono-sharpzip4.84-cil5.20.1.34-0xamarin4+ubuntu1804b1
libmono-simd4.0-cil5.20.1.34-0xamarin4+ubuntu1804b1
libmono-smdiagnostics0.0-cil5.20.1.34-0xamarin4+ubuntu1804b1
libmono-sqlite4.0-cil5.20.1.34-0xamarin4+ubuntu1804b1
libmono-system4.0-cil5.20.1.34-0xamarin4+ubuntu1804b1
libmono-system-componentmodel-composition4.0-cil5.20.1.34-0xamarin4+ubuntu1804b1
libmono-system-componentmodel-dataannotations4.0-cil5.20.1.34-0xamarin4+ubuntu1804b1
libmono-system-configuration4.0-cil5.20.1.34-0xamarin4+ubuntu1804b1
libmono-system-configuration-install4.0-cil5.20.1.34-0xamarin4+ubuntu1804b1
libmono-system-core4.0-cil5.20.1.34-0xamarin4+ubuntu1804b1
libmono-system-data4.0-cil5.20.1.34-0xamarin4+ubuntu1804b1
libmono-system-data-datasetextensions4.0-cil5.20.1.34-0xamarin4+ubuntu1804b1
libmono-system-data-entity4.0-cil5.20.1.34-0xamarin4+ubuntu1804b1
libmono-system-data-linq4.0-cil5.20.1.34-0xamarin4+ubuntu1804b1
libmono-system-data-services4.0-cil5.20.1.34-0xamarin4+ubuntu1804b1
libmono-system-data-services-client4.0-cil5.20.1.34-0xamarin4+ubuntu1804b1
libmono-system-deployment4.0-cil5.20.1.34-0xamarin4+ubuntu1804b1
libmono-system-design4.0-cil5.20.1.34-0xamarin4+ubuntu1804b1
libmono-system-drawing4.0-cil5.20.1.34-0xamarin4+ubuntu1804b1
libmono-system-drawing-design4.0-cil5.20.1.34-0xamarin4+ubuntu1804b1
libmono-system-dynamic4.0-cil5.20.1.34-0xamarin4+ubuntu1804b1
libmono-system-enterpriseservices4.0-cil5.20.1.34-0xamarin4+ubuntu1804b1
libmono-system-identitymodel4.0-cil5.20.1.34-0xamarin4+ubuntu1804b1
libmono-system-identitymodel-selectors4.0-cil5.20.1.34-0xamarin4+ubuntu1804b1
libmono-system-io-compression4.0-cil5.20.1.34-0xamarin4+ubuntu1804b1
libmono-system-io-compression-filesystem4.0-cil5.20.1.34-0xamarin4+ubuntu1804b1
libmono-system-json4.0-cil5.20.1.34-0xamarin4+ubuntu1804b1
libmono-system-json-microsoft4.0-cil5.20.1.34-0xamarin4+ubuntu1804b1
libmono-system-ldap4.0-cil5.20.1.34-0xamarin4+ubuntu1804b1
libmono-system-ldap-protocols4.0-cil5.20.1.34-0xamarin4+ubuntu1804b1
libmono-system-management4.0-cil5.20.1.34-0xamarin4+ubuntu1804b1
libmono-system-messaging4.0-cil5.20.1.34-0xamarin4+ubuntu1804b1
libmono-system-net4.0-cil5.20.1.34-0xamarin4+ubuntu1804b1
libmono-system-net-http4.0-cil5.20.1.34-0xamarin4+ubuntu1804b1
libmono-system-net-http-formatting4.0-cil5.20.1.34-0xamarin4+ubuntu1804b1
libmono-system-net-http-webrequest4.0-cil5.20.1.34-0xamarin4+ubuntu1804b1
libmono-system-numerics4.0-cil5.20.1.34-0xamarin4+ubuntu1804b1
libmono-system-numerics-vectors4.0-cil5.20.1.34-0xamarin4+ubuntu1804b1
libmono-system-reactive-core2.2-cil5.20.1.34-0xamarin4+ubuntu1804b1
libmono-system-reactive-debugger2.2-cil5.20.1.34-0xamarin4+ubuntu1804b1
libmono-system-reactive-experimental2.2-cil5.20.1.34-0xamarin4+ubuntu1804b1
libmono-system-reactive-interfaces2.2-cil5.20.1.34-0xamarin4+ubuntu1804b1
libmono-system-reactive-linq2.2-cil5.20.1.34-0xamarin4+ubuntu1804b1
libmono-system-reactive-observable-aliases0.0-cil5.20.1.34-0xamarin4+ubuntu1804b1
libmono-system-reactive-platformservices2.2-cil5.20.1.34-0xamarin4+ubuntu1804b1
libmono-system-reactive-providers2.2-cil5.20.1.34-0xamarin4+ubuntu1804b1
libmono-system-reactive-runtime-remoting2.2-cil5.20.1.34-0xamarin4+ubuntu1804b1
libmono-system-reactive-windows-forms2.2-cil5.20.1.34-0xamarin4+ubuntu1804b1
libmono-system-reactive-windows-threading2.2-cil5.20.1.34-0xamarin4+ubuntu1804b1
libmono-system-reflection-context4.0-cil5.20.1.34-0xamarin4+ubuntu1804b1
libmono-system-runtime4.0-cil5.20.1.34-0xamarin4+ubuntu1804b1
libmono-system-runtime-caching4.0-cil5.20.1.34-0xamarin4+ubuntu1804b1
libmono-system-runtime-durableinstancing4.0-cil5.20.1.34-0xamarin4+ubuntu1804b1
libmono-system-runtime-serialization4.0-cil5.20.1.34-0xamarin4+ubuntu1804b1
libmono-system-runtime-serialization-formatters-soap4.0-cil5.20.1.34-0xamarin4+ubuntu1804b1
libmono-system-security4.0-cil5.20.1.34-0xamarin4+ubuntu1804b1
libmono-system-servicemodel4.0a-cil5.20.1.34-0xamarin4+ubuntu1804b1
libmono-system-servicemodel-activation4.0-cil5.20.1.34-0xamarin4+ubuntu1804b1
libmono-system-servicemodel-discovery4.0-cil5.20.1.34-0xamarin4+ubuntu1804b1
libmono-system-servicemodel-internals0.0-cil5.20.1.34-0xamarin4+ubuntu1804b1
libmono-system-servicemodel-routing4.0-cil5.20.1.34-0xamarin4+ubuntu1804b1
libmono-system-servicemodel-web4.0-cil5.20.1.34-0xamarin4+ubuntu1804b1
libmono-system-serviceprocess4.0-cil5.20.1.34-0xamarin4+ubuntu1804b1
libmono-system-threading-tasks-dataflow4.0-cil5.20.1.34-0xamarin4+ubuntu1804b1
libmono-system-transactions4.0-cil5.20.1.34-0xamarin4+ubuntu1804b1
libmono-system-web4.0-cil5.20.1.34-0xamarin4+ubuntu1804b1
libmono-system-web-abstractions4.0-cil5.20.1.34-0xamarin4+ubuntu1804b1
libmono-system-web-applicationservices4.0-cil5.20.1.34-0xamarin4+ubuntu1804b1
libmono-system-web-dynamicdata4.0-cil5.20.1.34-0xamarin4+ubuntu1804b1
libmono-system-web-extensions4.0-cil5.20.1.34-0xamarin4+ubuntu1804b1
libmono-system-web-extensions-design4.0-cil5.20.1.34-0xamarin4+ubuntu1804b1
libmono-system-web-http4.0-cil5.20.1.34-0xamarin4+ubuntu1804b1
libmono-system-web-http-selfhost4.0-cil5.20.1.34-0xamarin4+ubuntu1804b1
libmono-system-web-http-webhost4.0-cil5.20.1.34-0xamarin4+ubuntu1804b1
libmono-system-web-mobile4.0-cil5.20.1.34-0xamarin4+ubuntu1804b1
libmono-system-web-mvc3.0-cil5.20.1.34-0xamarin4+ubuntu1804b1
libmono-system-web-razor2.0-cil5.20.1.34-0xamarin4+ubuntu1804b1
libmono-system-web-regularexpressions4.0-cil5.20.1.34-0xamarin4+ubuntu1804b1
libmono-system-web-routing4.0-cil5.20.1.34-0xamarin4+ubuntu1804b1
libmono-system-web-services4.0-cil5.20.1.34-0xamarin4+ubuntu1804b1
libmono-system-web-webpages2.0-cil5.20.1.34-0xamarin4+ubuntu1804b1
libmono-system-web-webpages-deployment2.0-cil5.20.1.34-0xamarin4+ubuntu1804b1
libmono-system-web-webpages-razor2.0-cil5.20.1.34-0xamarin4+ubuntu1804b1
libmono-system-windows4.0-cil5.20.1.34-0xamarin4+ubuntu1804b1
libmono-system-windows-forms4.0-cil5.20.1.34-0xamarin4+ubuntu1804b1
libmono-system-windows-forms-datavisualization4.0a-cil5.20.1.34-0xamarin4+ubuntu1804b1
libmono-system-workflow-activities4.0-cil5.20.1.34-0xamarin4+ubuntu1804b1
libmono-system-workflow-componentmodel4.0-cil5.20.1.34-0xamarin4+ubuntu1804b1
libmono-system-workflow-runtime4.0-cil5.20.1.34-0xamarin4+ubuntu1804b1
libmono-system-xaml4.0-cil5.20.1.34-0xamarin4+ubuntu1804b1
libmono-system-xml4.0-cil5.20.1.34-0xamarin4+ubuntu1804b1
libmono-system-xml-linq4.0-cil5.20.1.34-0xamarin4+ubuntu1804b1
libmono-system-xml-serialization4.0-cil5.20.1.34-0xamarin4+ubuntu1804b1
libmono-tasklets4.0-cil5.20.1.34-0xamarin4+ubuntu1804b1
libmono-webbrowser4.0-cil5.20.1.34-0xamarin4+ubuntu1804b1
libmono-webmatrix-data4.0-cil5.20.1.34-0xamarin4+ubuntu1804b1
libmono-windowsbase4.0-cil5.20.1.34-0xamarin4+ubuntu1804b1
libmono-xbuild-tasks4.0-cil5.20.1.34-0xamarin4+ubuntu1804b1
libmount12.31.1-0.4ubuntu3.7
libncurses56.1-1ubuntu1.18.04
libncursesw56.1-1ubuntu1.18.04
libnettle63.4-1ubuntu0.1
libnghttp2-141.30.0-1ubuntu1
libnpth01.5-3
libnunit-cil-dev2.6.4+dfsg-1
libnunit-console-runner2.6.3-cil2.6.4+dfsg-1
libnunit-core2.6.3-cil2.6.4+dfsg-1
libnunit-core-interfaces2.6.3-cil2.6.4+dfsg-1
libnunit-framework2.6.3-cil2.6.4+dfsg-1
libnunit-mocks2.6.3-cil2.6.4+dfsg-1
libnunit-util2.6.3-cil2.6.4+dfsg-1
libonig46.7.0-1
libp11-kit00.23.9-2ubuntu0.1
libpam0g1.1.8-3.6ubuntu2.18.04.2
libpam-modules1.1.8-3.6ubuntu2.18.04.2
libpam-modules-bin1.1.8-3.6ubuntu2.18.04.2
libpam-runtime1.1.8-3.6ubuntu2.18.04.2
libpcre32:8.39-9
libperl5.265.26.1-6ubuntu0.5
libpixman-1-00.34.0-2
libpng16-161.6.34-1ubuntu0.18.04.2
libprocps62:3.3.12-3ubuntu1.2
libpsl50.19.1-5build1
libpython2.7-minimal2.7.17-1~18.04ubuntu1.6
libpython2.7-stdlib2.7.17-1~18.04ubuntu1.6
libpython-stdlib2.7.15~rc1-1
libreadline77.0-3
libroken18-heimdal7.5.0+dfsg-1
librtmp12.4+20151223.gitfa8646d.1-1
libsasl2-22.1.27~101-g0780600+dfsg-3ubuntu2.3
libsasl2-modules2.1.27~101-g0780600+dfsg-3ubuntu2.3
libsasl2-modules-db2.1.27~101-g0780600+dfsg-3ubuntu2.3
libseccomp22.5.1-1ubuntu1~18.04.1
libselinux12.7-2build2
libsemanage12.7-2build2
libsemanage-common2.7-2build2
libsepol12.7-1
libsmartcols12.31.1-0.4ubuntu3.7
libsqlite3-03.22.0-1ubuntu0.4
libss21.44.1-1ubuntu1.3
libssl1.11.1.1-1ubuntu2.1~18.04.9
libstdc++68.4.0-1ubuntu1~18.04
libsystemd0237-3ubuntu10.46
libtasn1-64.13-2
libtiff54.0.9-5ubuntu0.4
libtinfo56.1-1ubuntu1.18.04
libudev1237-3ubuntu10.46
libunistring20.9.9-0ubuntu2
libuuid12.31.1-0.4ubuntu3.7
libwind0-heimdal7.5.0+dfsg-1
libx11-62:1.6.4-3ubuntu0.3
libx11-data2:1.6.4-3ubuntu0.3
libxau61:1.0.8-1ubuntu1
libxcb11.13-2~ubuntu18.04
libxcb-render01.13-2~ubuntu18.04
libxcb-shm01.13-2~ubuntu18.04
libxdmcp61:1.1.2-3
libxext62:1.3.3-1
libxrender11:0.9.10-1
libzen0v50.4.39-1
libzstd11.3.3+dfsg-2ubuntu1.2
locales2.27-3ubuntu1.4
login1:4.5-1ubuntu2
lsb-base9.20170808ubuntu1
make4.1-9.1ubuntu1
mawk1.3.3-17ubuntu3
mediainfo21.03-1
mime-support3.60ubuntu1
mono-4.0-gac5.20.1.34-0xamarin4+ubuntu1804b1
mono-devel5.20.1.34-0xamarin4+ubuntu1804b1
mono-gac5.20.1.34-0xamarin4+ubuntu1804b1
mono-mcs5.20.1.34-0xamarin4+ubuntu1804b1
mono-roslyn5.20.1.34-0xamarin4+ubuntu1804b1
mono-runtime5.20.1.34-0xamarin4+ubuntu1804b1
mono-runtime-common5.20.1.34-0xamarin4+ubuntu1804b1
mono-runtime-sgen5.20.1.34-0xamarin4+ubuntu1804b1
mono-vbnc4.7-0xamarin1+ubuntu1804b1
mono-xbuild5.20.1.34-0xamarin4+ubuntu1804b1
mount2.31.1-0.4ubuntu3.7
multiarch-support2.27-3ubuntu1.4
ncurses-base6.1-1ubuntu1.18.04
ncurses-bin6.1-1ubuntu1.18.04
openssl1.1.1-1ubuntu2.1~18.04.9
passwd1:4.5-1ubuntu2
patch2.7.6-2ubuntu1.1
perl5.26.1-6ubuntu0.5
perl-base5.26.1-6ubuntu0.5
perl-modules-5.265.26.1-6ubuntu0.5
pinentry-curses1.1.0-1
pkg-config0.29.1-0ubuntu2
procps2:3.3.12-3ubuntu1.2
publicsuffix20180223.1310-1
python2.7.15~rc1-1
python2.72.7.17-1~18.04ubuntu1.6
python2.7-minimal2.7.17-1~18.04ubuntu1.6
python-minimal2.7.15~rc1-1
readline-common7.0-3
repo-mediaarea1.0-12
sed4.4-2
sensible-utils0.0.12
sqlite33.22.0-1ubuntu0.4
sysvinit-utils2.88dsf-59.10ubuntu1
tar1.29b-2ubuntu0.2
tzdata2021a-0ubuntu0.18.04
ubuntu-keyring2018.09.18.1~18.04.2
ucf3.0038
unzip6.0-21ubuntu1.1
util-linux2.31.1-0.4ubuntu3.7
xz-utils5.2.2-1.3
zlib1g1:1.2.11.dfsg-0ubuntu2
